{
  "Version": "2012-10-17",
  "Statement": [
    {
      "Sid": "DenyRootUserActions",
      "Effect": "Deny",
      "NotAction": [
        "aws-portal:ViewAccount",
        "aws-portal:ModifyAccount",
        "s3:PutBucketVersioning",
        "s3:List*"
      ],
      "Resource": [
        "*"
      ],
      "Condition": {
        "StringLike": {
          "aws:PrincipalArn": [
            "arn:aws:iam::*:root"
          ]
        }
      }
    },
    {
      "Sid": "DenyS3CrossRegionReplication",
      "Effect": "Deny",
      "Action": [
        "s3:PutReplicationConfiguration"
      ],
      "Resource": [
        "arn:aws:s3:::*"
      ],
      "Condition": {
        "ArnNotLike": {
          "aws:PrincipalArn": [
            "arn:aws:iam::*:role/AWSCloudFormationStackSetExecutionRole"
          ]
        }
      }
    },
    {
      "Sid": "DenyUnEncryptedS3Object",
      "Effect": "Deny",
      "Action": "s3:PutObject",
      "Resource": "*",
      "Condition": {
        "StringNotLike": {
          "s3:x-amz-server-side-encryption": [
            "AES256",
            "aws:kms"
          ]
        },
        "ArnNotLike": {
          "aws:PrincipalARN": [
            "arn:aws:iam::*:role/AWSCloudFormationStackSetExecutionRole",
            "arn:aws:iam::*:role/lgCloudAdministrator"
          ]
        }
      }
    },
	{
	  "Sid": "DenyIGWPoC",
      "Effect": "Deny",
      "Action": [
        "ec2:CreateInternetGateway",
        "ec2:CreateEgressOnlyInternetGateway",
        "ec2:CreateVpcPeeringConnection",
        "ec2:AcceptVpcPeeringConnection",
        "globalaccelerator:Create*"
      ],
      "Resource": "*",
	   "Condition": {
			"ArnNotLike": {
                "aws:PrincipalARN": [
				"arn:aws:iam::*:role/AWSCloudFormationStackSetExecutionRole",
				"arn:aws:iam::*:role/lgCloudAdministrator"
                ]
            }
		}
    },
    {
      "Sid": "DenyAllOutsideApprovedRegion",
      "Effect": "Deny",
      "NotAction": [
        "a4b:*",
        "acm:*",
        "aws-marketplace-management:*",
        "aws-marketplace:*",
        "aws-portal:*",
        "awsbillingconsole:*",
        "budgets:*",
        "ce:*",
        "config:*",
        "cur:*",
        "chatbot:*",
        "codeartifact:*",
        "compute-optimizer:*",
        "chime:*",
        "cloudfront:*",
        "clouddirectory:*",
        "cognito-identity:*",
        "connect:*",
        "directconnect:*",
        "devops-guru:*",
        "deepcomposer:*",
        "deeplens:*",
        "deepracer:*",
        "devicefarm:*",
        "ec2:DescribeRegions",
        "ec2:DescribeTransitGateways",
        "ec2:DescribeVpnGateways",
        "fms:*",
        "globalaccelerator:*",
        "health:*",
        "honeycode:*",
        "iam:*",
        "importexport:*",
        "kms:*",
        "kendra:*",
        "mobileanalytics:*",
        "monitron:*",
        "networkmanager:*",
        "network-firewall:*",
        "organizations:*",
        "opsworks:*",
        "pricing:*",
        "route53:*",
        "route53domains:*",
        "s3:GetAccountPublic*",
        "s3:ListAllMyBuckets",
        "s3:PutAccountPublic*",
        "shield:*",
        "sts:*",
        "support:*",
        "trustedadvisor:*",
        "waf-regional:*",
        "waf:*",
        "wafv2:*",
        "wellarchitected:*"
      ],
      "Resource": "*",
      "Condition": {
        "StringNotEquals": {
          "aws:RequestedRegion": [
            "eu-central-1",
            "eu-west-2"
          ]
        },
        "ArnNotLike": {
          "aws:PrincipalARN": [
            "arn:aws:iam::*:role/AWSCloudFormationStackSetExecutionRole"
          ]
        }
      }
    }
  ]
}
